[
  {"field": "title", "description": "The title of your assets."},
  {"field": "date", "description": "The date of the creation of the post."},
  {"field": "folder", "description": "The name of your assets folder (your folder inside the <kbd>/assets</kbd> folder)."},
  {"field": "homepage", "description": "_(optional)_ The assets homepage (if it has have any). External link."},
  {"field": "preview", "description": "_(optional)_ A link for the users to preview the assets. _Example: it could be a link to an \"overview\" sprite sheet that shows all available sprites_. External or internal link."},
  {"field": "download", "description": "The download link to your assets. External or internal link."},
  {"field": "license", "description": "The license for your assets. <a href='http://choosealicense.com' target='_blank'>Choose a License</a> is a great site to review licensing options."},
  {"field": "license_notes", "description": "_(optional)_ Additional license information. _Example: If you're using the MIT license, but you don't want people to even provide credit back to you. You can leave that note here_."},
  {"field": "license_url", "description": "_(optional)_ A direct link to the license file or website page. External or internal link."},
  {"field": "author", "description": "Your name, alias or whatever."},
  {"field": "social_media", "description": "_(optional)_ Collection of links to the assets author. External links."},
  {"field": "images/thumbnail", "description": "The preview image for your assets. **Image size:** <kbd>315x250</kbd>. External or internal link."},
  {"field": "images/banner", "description": "_(optional)_ Big preview image for your assets. **Recommended image size at least:** <kbd>640x360</kbd>. External or internal link."},
  {"field": "images/screenshots", "description": "_(optional)_ Screenshots of your assets. External or internal links."},
  {"field": "tags", "description": "Self explanatory. _Example: A sprite sheet might have different animation states in it, list them all in the **tags** section: <kbd>Idle</kbd>, <kbd>Walk</kbd>, <kbd>Run</kbd>, <kbd>Attack</kbd>, etc_"}
]
